# Integration test - homework is correct

    Code
      productions_attractions
    Output
      $productions
      # A tibble: 4,260 x 4
      # Groups:   geoid, trip_type [1,065]
         geoid       trip_type time_period n_trips
         <chr>       <chr>     <chr>         <dbl>
       1 37037020103 HBO       AM Peak       1520.
       2 37037020103 HBO       Midday        2549.
       3 37037020103 HBO       Overnight      814.
       4 37037020103 HBO       PM Peak       1339.
       5 37037020103 HBW       AM Peak        822.
       6 37037020103 HBW       Midday         352.
       7 37037020103 HBW       Overnight      240.
       8 37037020103 HBW       PM Peak        579.
       9 37037020103 NHB       AM Peak        842.
      10 37037020103 NHB       Midday        2700.
      # i 4,250 more rows
      
      $attractions
      # A tibble: 4,260 x 4
         geoid       trip_type time_period n_trips
         <chr>       <chr>     <chr>         <dbl>
       1 37037020103 HBO       AM Peak       1938.
       2 37037020104 HBO       AM Peak       1138.
       3 37037020105 HBO       AM Peak       1145.
       4 37037020107 HBO       AM Peak       1005.
       5 37037020108 HBO       AM Peak        997.
       6 37037020201 HBO       AM Peak       1017.
       7 37037020202 HBO       AM Peak        943.
       8 37037020203 HBO       AM Peak        999.
       9 37037020300 HBO       AM Peak       1395.
      10 37037020401 HBO       AM Peak       1175.
      # i 4,250 more rows
…
---

    Code
      flows
    Output
      # A tibble: 1,512,300 x 6
      # Groups:   orig_geoid [355]
         orig_geoid  dest_geoid  n_trips dist_km trip_type time_period
         <chr>       <chr>         <dbl>   <dbl> <chr>     <chr>      
       1 37037020103 37037020103 217.       2.77 HBO       AM Peak    
       2 37037020103 37037020104  40.4      5.11 HBO       AM Peak    
       3 37037020103 37037020105  39.1      5.22 HBO       AM Peak    
       4 37037020103 37037020107   7.00    12.2  HBO       AM Peak    
       5 37037020103 37037020108  14.4      8.25 HBO       AM Peak    
       6 37037020103 37037020201   0.922   36.0  HBO       AM Peak    
       7 37037020103 37037020202   2.69    19.6  HBO       AM Peak    
       8 37037020103 37037020203   1.66    26.1  HBO       AM Peak    
       9 37037020103 37037020300   0.973   41.5  HBO       AM Peak    
      10 37037020103 37037020401   0.886   39.8  HBO       AM Peak    
      # i 1,512,290 more rows

---

    Code
      flows_by_mode
    Output
      # A tibble: 1,512,300 x 11
      # Groups:   orig_geoid [355]
         orig_geoid  dest_geoid  n_trips dist_km trip_type time_period HTRESDN     Car
         <chr>       <chr>         <dbl>   <dbl> <chr>     <chr>         <dbl>   <dbl>
       1 37037020103 37037020103 217.       2.77 HBO       AM Peak        172. 176.   
       2 37037020103 37037020104  40.4      5.11 HBO       AM Peak        172.  35.9  
       3 37037020103 37037020105  39.1      5.22 HBO       AM Peak        172.  34.8  
       4 37037020103 37037020107   7.00    12.2  HBO       AM Peak        172.   6.57 
       5 37037020103 37037020108  14.4      8.25 HBO       AM Peak        172.  13.3  
       6 37037020103 37037020201   0.922   36.0  HBO       AM Peak        172.   0.889
       7 37037020103 37037020202   2.69    19.6  HBO       AM Peak        172.   2.55 
       8 37037020103 37037020203   1.66    26.1  HBO       AM Peak        172.   1.58 
       9 37037020103 37037020300   0.973   41.5  HBO       AM Peak        172.   0.942
      10 37037020103 37037020401   0.886   39.8  HBO       AM Peak        172.   0.856
      # i 1,512,290 more rows
      # i 3 more variables: Transit <dbl>, Walk <dbl>, Bike <dbl>
…
